*** Life<FredkinCell> 16x10 ***

Generation = 0, Population = 9.
----------
-------0--
----------
----------
-0----0---
----------
---0------
----------
----------
-0---0--0-
------0---
----------
----------
------0---
----------
----------

Generation = 1, Population = 32.
-------0--
------0-0-
-------0--
-0----0---
0-0--0-0--
-0-0--0---
--0-0-----
---0------
-0---0--0-
0-0-0--0-0
-0-----00-
------0---
------0---
-----0-0--
------0---
----------

Generation = 2, Population = 26.
----------
-----0---0
-0----0---
-------0--
----0---0-
----------
-----00---
-0---0--0-
---0--0---
------01--
----0---1-
-0---01-0-
------1---
----0---0-
----------
------0---

*** Life<FredkinCell> 8x6 ***

Generation = 0, Population = 9.
------
-----0
------
-0-0--
------
--00--
---0--
-0--00

Generation = 2, Population = 13.
------
-0---0
------
-00---
---0--
01-0--
-1---1
-0-02-

Generation = 4, Population = 18.
------
-01--0
---0--
----00
------
21--11
---1-1
120241

*** Life<FredkinCell> 19x3 ***

Generation = 0, Population = 9.
---
0--
---
---
-0-
---
---
---
00-
---
---
---
---
0-0
--0
---
-0-
---
-0-

Generation = 2, Population = 19.
---
0-0
-0-
0--
---
---
0--
---
2-1
---
00-
0-0
--1
---
112
0-1
-01
---
---

Generation = 4, Population = 16.
-0-
0--
---
---
10-
1--
---
---
-1-
0-1
--0
---
1--
---
-1-
---
-2-
0-1
-00

*** Life<FredkinCell> 9x3 ***

Generation = 0, Population = 7.
-0-
-0-
0--
---
--0
0--
-00
---
---

Generation = 2, Population = 13.
12-
---
00-
10-
-1-
0-0
0--
0--
-00

Generation = 4, Population = 9.
3-1
01-
--1
---
-3-
-1-
0--
---
-2-

*** Life<FredkinCell> 6x9 ***

Generation = 0, Population = 8.
---0-----
---00----
------0-0
---------
----0----
--0---0--

Generation = 2, Population = 21.
-0-2-00-0
-01--11--
---1--0--
--001-1--
--1-----0
0-0---0-0

Generation = 4, Population = 28.
----0-000
1-312-311
--130-0-0
--0---3--
1--01---2
0-210-0-2

*** Life<FredkinCell> 5x9 ***

Generation = 0, Population = 9.
-------00
-0-----0-
-0---0-0-
--------0
---0-----

Generation = 1, Population = 19.
-0----0-1
010--00--
010-0--1-
-0-0-0---
--0-0---0

Generation = 2, Population = 14.
-1----1--
---0-1--0
---0-0--0
-1----000
---0---0-

Generation = 3, Population = 23.
0-00---01
-101-2-01
-101-1---
0-0---11-
-00-0--1-

Generation = 4, Population = 15.
-1--001--
---2-3---
-----2--0
----0-2-0
-1---0-20

Generation = 5, Population = 21.
0-0-1120-
-10-0---1
---1-3-11
-1-0---1-
0-0---03-

*** Life<FredkinCell> 16x12 ***

Generation = 0, Population = 10.
------------
---0---0--0-
-----0----0-
------------
----0-------
------------
-----0------
------------
------------
------------
-----------0
------------
------------
-0----------
0-----------
------------

Generation = 5, Population = 74.
---021---0--
-0--0010-21-
0-0-22-1013-
00---00-002-
-0-0-----01-
000-000---2-
0-012-000111
-0--00---000
-0-0-0------
--0-00-0-0--
----0-----0-
0----0-0-0--
-0---0------
------0----0
----------0-
----0------0

*** Life<FredkinCell> 2x12 ***

Generation = 0, Population = 9.
0-000------0
---00--0---0

Generation = 1, Population = 12.
--11-0-0--01
0----00-0-01

Generation = 2, Population = 13.
0022-10--0--
-0000-10----

*** Life<FredkinCell> 19x3 ***

Generation = 0, Population = 9.
---
---
0--
0--
---
-0-
---
---
-0-
-0-
0-0
-0-
---
---
---
---
---
---
-0-

Generation = 1, Population = 19.
---
0--
10-
10-
00-
0-0
-0-
-0-
010
-1-
---
---
-0-
---
---
---
---
-0-
0-0

Generation = 2, Population = 20.
0--
1--
2-0
210
1--
1--
-1-
---
1-1
-2-
-0-
-0-
0-0
-0-
---
---
-0-
---
-0-

*** Life<FredkinCell> 10x16 ***

Generation = 0, Population = 8.
----------------
--0-------------
----------------
-0--------------
----------0--0--
----------0-----
-----------0----
----0-----------
----------------
-------0--------

Generation = 1, Population = 27.
--0-------------
-0-0------------
-00-------------
0-0-------0--0--
-0-------0100-0-
---------01--0--
----0-------0---
---0-0-----0----
----0--0--------
------0-0-------

Generation = 2, Population = 26.
----------------
01--0-----------
----------0--0--
--10------1-----
--------0---1--0
-0--0---0---0---
---------00-----
--0---00--0-----
-----------0----
----00-0-0------

Generation = 3, Population = 80.
00--0-----------
1200-0----0--0--
00000----0100-0-
-0210---002000-0
-0000--01010200-
0-00-0-01-1010-0
-00-0-00-1-00---
-0-0-0110-1-----
--0-000--0--0---
---011----00----

Generation = 4, Population = 30.
----------0--0--
2-1---0---1-----
-----------1----
-1--10----------
------0--1----10
--1---01------0-
-------1-------0
01-----21-------
----------0--0--
---12-----11----

Generation = 5, Population = 76.
0-0---0--0100-0-
---0-0-0-02--0--
000-000-----0---
0-2121---0-0--00
-00-0-1-1-1--0-1
-0-0-0--10---010
000-------------
120---1-201--0-0
00-00--0001-0-0-
--0231---0-200--
