10

6 6
5
3 3
3 4
3 5
4 3
5 3
3 1

11 11
10
2 2
2 3
2 4
2 5
2 6
2 7
2 8
2 9
2 10
2 1
5 2

11 11
25
5 5
5 6
5 7
5 8
5 9
6 5
7 5
7 6
7 7
7 8
7 9
8 5
8 6
8 7
8 8
8 9
9 5
9 6
9 7
9 8
9 9
10 5
10 6
10 7
10 8
3 1

21 20
25
12 7
12 8
12 9
13 7
13 8
13 9
14 7
14 8
14 9
15 7
15 8
15 9
16 7
16 8
16 9
17 7
17 8
17 9
18 7
18 8
18 9
19 7
19 8
19 9
20 7
4 2

4 3
2
1 1
3 1
5 2

5 5
4
1 1
1 2
2 1
2 2
8 3

10 10
20
5 5
5 4
1 1
1 0
0 1
2 2
2 3
4 3
5 4
3 3
1 9
9 1
0 4
2 8
8 7
7 8
0 0
7 7
9 9
2 3
5 2

6 6
6
2 2
2 3
2 4
3 2
3 3
3 4
6 2

6 6
10
1 1
1 2
1 3
1 4
1 5
2 1
2 5
3 3
4 2
4 4
10 2

7 7
20
1 1
1 2
1 3
1 4
1 5
1 6
2 1
2 6
3 3
4 2
4 5
5 1
5 6
6 1
6 2
6 3
6 4
6 5
6 6
0 0
6 3
