10

4 4
5
2 2
2 1
1 2
0 0
0 1
5 1

5 5
6
1 1
1 2
2 1
2 2
3 3
3 0
10 2

6 6
10
1 1
1 2
1 3
1 4
1 0
2 1
2 0
3 3
4 2
4 4
20 2

7 7
14
1 1
1 2
1 3
1 4
1 0
2 1
2 0
3 3
4 2
4 4
0 1
0 2
0 3
0 4
30 3

8 8
19
1 1
1 2
1 3
1 4
1 5
1 0
2 1
2 0
3 3
4 2
4 5
5 1
5 0
0 1
0 2
0 3
0 4
0 5
0 0
40 4

4 4
2
1 1
0 1
5 2

5 5
6
1 1
1 2
2 1
2 2
3 3
3 0
15 2

6 6
10
2 2
2 3
2 4
3 2
3 3
3 4
4 2
4 3
4 4
0 0
20 3

10 10
15
5 5
5 1
5 2
1 5
1 1
1 2
2 0
2 1
2 2
3 0
3 1
3 2
4 0
4 1
4 2
4 2

20 20
20
10 10
10 11
10 12
10 13
10 14
9 9
8 8
0 0
13 13
13 12
14 10
3 3
3 2
3 1
3 9
3 8
3 7
3 6
3 5
3 4
3 1
