*** Life<Cell> 6x6 ***

Generation = 0, Population = 3.
------
------
------
------
---000
------

Generation = 1, Population = 9.
------
------
------
---000
--01-1
---000

*** Life<Cell> 7x7 ***

Generation = 0, Population = 3.
-------
-------
-------
-------
---000-
-------
-------

Generation = 1, Population = 10.
-------
-------
-------
---000-
--01-10
---000-
-------

*** Life<Cell> 8x8 ***

Generation = 0, Population = 3.
--------
--------
--------
--------
---000--
--------
--------
--------

Generation = 1, Population = 10.
--------
--------
--------
---000--
--01-10-
---000--
--------
--------
