*** Life<FredkinCell> 5x13 ***

Generation = 0, Population = 7.
-0---00------
------0------
--0--0------0
-------------
-------------

Generation = 1, Population = 18.
0-0-01-0-----
-00--010----0
-0-00------0-
--0--0------0
-------------

Generation = 2, Population = 22.
-01-1-010---0
----0---0----
01-11000--0-0
------0------
--0--0------0

Generation = 3, Population = 32.
012-2-1--0-0-
0-0----0100--
12-22-11-0---
0000001---0--
-0-00------0-

Generation = 4, Population = 15.
---------10-0
--1---1---1--
2----0--010--
-------------
-10---0-----0

*** Life<FredkinCell> 12x12 ***

Generation = 0, Population = 10.
0----0---0--
-----0------
-----0------
------------
------------
------------
-0-0---0--0-
------------
------------
------------
----0-------
------------

Generation = 1, Population = 32.
-0--010-0-0-
0---0-0--0--
----010-----
-----0------
------------
-0-0---0--0-
0---0-0-00-0
-0-0---0--0-
------------
----0-------
---0-0------
----0-------

Generation = 2, Population = 28.
--00-----0-0
---0---0----
0--0-2-0-0--
-----1------
-0-0-0-0--0-
------------
-0-0----11--
------------
-0-00--0--0-
------------
--0---0-----
------------

Generation = 3, Population = 66.
-01-0--00---
0---00010--0
-001-3-1--0-
00--0-0--00-
0----1--00-0
-----0-0000-
0---0--0220-
----0--0000-
0--1100-00-0
-0000-00--0-
-0-0-0-0----
--0---0-----

*** Life<FredkinCell> 9x12 ***

Generation = 0, Population = 5.
------------
------------
------------
-------0----
------------
----0--0----
------0-----
------0-----
------------

Generation = 2, Population = 15.
------------
-------0----
------------
----00-0-0--
------0-----
--0--1-0-0--
----1---0---
-------10---
------1-----

Generation = 4, Population = 17.
------------
----0--0----
------0-----
---1--1----0
------------
0--1----1--0
--1-------0-
--0---13--0-
------1-----

Generation = 6, Population = 38.
------0-----
--01-1---0-0
----1---0---
00-1-2-1-0--
--0---1---0-
01-1-101-1--
1---1-2-2---
---1-1--11-1
--1-0-3-0-1-

Generation = 8, Population = 16.
------0-----
----1--0----
------------
------31-0--
------3-----
--1-1--3-1--
3---------1-
1------5--2-
------------

*** Life<FredkinCell> 14x11 ***

Generation = 0, Population = 6.
-----0-0---
-0---------
-----------
-----------
-----------
-----------
-----------
-----------
----0------
--0--------
-----------
-------0---
-----------
-----------

Generation = 1, Population = 20.
-0--0---0--
0-0--0-0---
-0---------
-----------
-----------
-----------
-----------
----0------
--00-0-----
-0-00------
--0----0---
------0-0--
-------0---
-----------

Generation = 2, Population = 18.
---0-----0-
---0-------
-----0-0---
-0---------
-----------
-----------
----0------
--0--------
--1---0----
0---1--0---
----0------
--0--0---0-
-----------
-------0---

Generation = 3, Population = 58.
--010---0-0
--0100-0-0-
-0-00---0--
0-0--0-0---
-0---------
----0------
--00-0-----
-0100-0----
002000-----
-00020--0--
0-001--0-0-
-0-0--0-0-0
--0--0-0-0-
------0-0--

Generation = 4, Population = 20.
-0-2-----0-
-----1-----
-----0-0---
-----------
----00-0---
-00--------
-----------
-------0---
1-------0--
0-----0----
-----------
---1-------
----0------
--0----0---

*** Life<FredkinCell> 13x5 ***

Generation = 0, Population = 6.
-----
-----
----0
-0---
-----
-----
--0--
0----
-----
-0---
---0-
-----
-----

Generation = 1, Population = 22.
-----
----0
-0-0-
0-0-0
-0---
--0--
00-0-
-00--
00---
0-00-
-00-0
---0-
-----

*** Life<FredkinCell> 8x7 ***

Generation = 0, Population = 7.
0--00--
-------
--0----
-----0-
------0
-------
-------
---0---

Generation = 1, Population = 18.
-00110-
0-000--
-0-0-0-
--0-0--
-------
------0
---0---
--0-0--

Generation = 2, Population = 19.
-112210
-----0-
---1--0
---0---
--0-0-0
---0-0-
------0
-0-0-0-

*** Life<FredkinCell> 14x10 ***

Generation = 0, Population = 6.
----------
----------
-0-00-----
----------
----------
----------
--0-------
----------
----------
----------
-0----0---
----------
----------
----------

Generation = 1, Population = 22.
----------
-0-00-----
0--110----
-0-00-----
----------
--0-------
-0-0------
--0-------
----------
-0----0---
0-0--0-0--
-0----0---
----------
----------

Generation = 2, Population = 22.
-0-00-----
----------
-002-10---
----------
-0000-----
----------
0---0-----
----------
-00---0---
----------
---00---0-
----------
-0----0---
----------

Generation = 3, Population = 62.
0--110----
--0-000---
01-3-210--
----000---
01--10----
0000------
-0-0-0----
000-0-0---
0110-0-0--
-0000-0-0-
--0110-0-0
-0-00-0-0-
0-0--0-0--
-0----0---

Generation = 4, Population = 14.
-0-22-----
----------
120--3-10-
----------
----------
----------
0--10-----
----------
----------
----------
-0---1----
----------
----------
----------

Generation = 5, Population = 43.
0--330----
0-0000-00-
2-131--210
000--0-00-
----------
0--00-----
-00210----
0--00-----
----------
-0---0----
0-0-1-0---
-0---0----
----------
----------

Generation = 6, Population = 32.
10--4-000-
----------
-224-313-1
----------
-10010-00-
----------
01---10---
----------
01-000----
----------
-------0--
----------
-0---0----
----------

Generation = 7, Population = 68.
2103--1-10
0-0000--00
23-5-4-4--
----0-0-00
02---1-110
0-000-000-
120-1210--
---00-0---
12-1-10---
00-000-0--
------0-0-
-0---0-0--
0-0-0-0---
-0---0----

Generation = 8, Population = 16.
--1-------
----------
-426-51-1-
----------
-3-01-----
----------
----2-----
----------
----------
----------
0--111---0
----------
----------
----------

*** Life<FredkinCell> 5x14 ***

Generation = 0, Population = 13.
-----0----0---
--------0--0--
0--0--------00
00---0----0-0-
--------------

Generation = 2, Population = 28.
0----0-01-0--0
10---10--1--01
201--------0-2
0-1----0--002-
1--0--------10

*** Life<FredkinCell> 12x11 ***

Generation = 0, Population = 12.
---------0-
--0--------
------0----
--------0--
-------0-0-
0----------
----------0
-----------
-----------
-----0-----
-----------
0-----0---0

Generation = 2, Population = 37.
------00-0-
0---0---0--
----0--11--
0-0---1---0
-----010-01
0-0-----0--
-------0010
0----0-----
----------0
0--0--10--0
-----------
--0-010----

Generation = 4, Population = 30.
-----122---
--0---1----
--1------1-
----1-----2
---0-2-----
----01-----
--------2--
0-----1-1-0
-------1-1-
-1----3--12
----------1
----212-0-0

*** Life<FredkinCell> 11x12 ***

Generation = 0, Population = 13.
------------
-00-0--0----
------------
--0----0----
0-----------
------------
------0-----
-0-0--------
----0-------
---0---0----
------------

Generation = 2, Population = 30.
------------
1--00110-0--
0-----------
110--0-0-0--
0-1---0-----
-000---0----
0-------0---
-0---0-0----
--0---------
---0-----0--
----0-------

Generation = 4, Population = 28.
1-----------
--2201120--0
------1-----
31----1----0
--1---------
-2221-------
--1-------0-
-00--0------
--------0---
-----------0
----0-0-----

Generation = 6, Population = 47.
--1---1-----
--42--322-1-
1-1-1---1---
53000131-0--
2-3-1-1---0-
-4-23------0
0-1-1-------
1201---0---0
--1-0-------
-00--0---0-0
--0---------
