7

10 10
17
1 1
1 2
1 3
1 4
1 5
1 6
1 7
1 8
2 5
3 5
4 5
5 5
6 5
7 4
7 3
6 2
5 2
40 20

5 5
10
1 1
1 2
3 1
4 4
4 3
3 3
2 2
0 2
0 1
1 0
50 25

8 8
15
0 0
0 1
0 2
0 3
0 4
0 5
0 6
1 1
2 1
3 1
4 1
2 3
3 4
4 5
5 6
50 25

10 10
14
3 3
4 3
5 3
6 3
7 4
7 5
7 6
7 7
6 8
5 8
4 8
3 8
5 5
5 6
44 22

10 10
12
2 2
3 3
4 4
5 5
6 6
7 7
8 8
2 8
3 7
4 6
6 4
7 3
50 25

8 8
10
1 0
2 1
3 2
4 3
3 4
2 5
1 6
5 3
6 4
6 2
38 19

12 12
30
0 1
0 2
0 3
0 5
0 6
0 7
0 8
0 11
1 0
1 2
1 3
1 5
1 6
1 7
2 3
2 5
2 8
2 11
3 4
3 5
3 6
3 8
3 10
5 2
5 3
5 5
6 10
6 9
6 8
6 6
50 25
