10

6 11
30
0 3
4 4
5 1
1 1
2 3
4 2
2 3
1 0
1 10
5 4
0 10
2 0
3 3
5 4
2 3
1 6
4 3
1 1
2 8
1 2
3 4
5 1
5 9
4 2
3 4
1 9
0 3
2 2
1 6
0 3
3 3

9 12
11
0 4
1 0
8 6
4 11
3 1
0 5
5 5
0 3
5 0
5 8
4 0
5 1

8 9
8
1 6
3 7
7 3
4 2
1 6
7 2
3 6
0 7
8 4

26 13
12
21 4
6 0
8 2
14 5
11 12
7 3
12 3
20 8
8 10
11 7
14 6
13 3
5 3

23 13
10
21 11
10 9
10 10
9 9
8 8
1 11
20 12
2 2
9 9
10 1
9 2

10 27
7
9 14
1 14
9 16
7 7
1 8
7 9
2 9
10 3

29 28
7
11 11
8 22
9 14
3 21
22 21
2 10
20 14
5 3

24 12
4
22 2
4 5
14 4
1 10
6 3

16 29
20
15 2
11 18
8 2
1 22
15 10
15 15
14 20
8 8
9 9
10 1
1 11
12 18
13 21
15 0
0 0
1 28
12 17
1 18
10 10
1 20
4 2

7 5
20
4 2
3 0
3 2
1 0
1 1
1 2
1 3
4 3
2 1
4 3
5 4
2 4
4 4
1 2
2 3
6 1
4 4
0 0
1 4
5 0
5 2
