10

5 11
7
1 4
2 5
1 1
1 0
1 5
2 8
3 10
4 2

6 7
5
1 2
4 5
4 0
1 1
3 1
3 1

5 4
14
4 2
4 3
1 1
1 3
0 0
3 1
0 2
0 3
3 3
1 2
3 2
3 3
2 1
2 3
3 1

9 6
11
0 4
6 5
7 0
6 3
4 4
0 4
1 5
8 0
2 1
3 3
8 1
4 2

8 5
5
4 4
3 1
0 2
6 0
1 2
3 1

5 5
14
0 3
3 4
2 4
3 3
4 2
4 3
0 1
0 3
2 0
4 1
2 4
3 1
3 0
4 4
4 2

11 5
10
8 0
4 2
2 3
0 1
7 0
4 0
3 0
10 1
8 1
10 2
5 1

7 9
13
1 0
4 7
4 7
6 6
1 6
3 7
4 3
5 4
3 4
2 2
1 1
2 5
1 7
5 1

7 5
10
3 2
2 2
0 1
5 3
4 1
3 1
6 2
6 3
3 0
0 2
3 1

9 5
8
1 4
3 0
6 0
1 3
2 4
2 4
5 4
7 2
5 1
