9

12 37
23
7 35
2 4
10 27
3 10
2 19
0 21
5 6
4 26
8 19
11 30
4 36
1 17
10 18
4 1
7 11
7 6
1 11
0 3
4 14
1 10
1 36
1 28
7 29
8 8

8 8
3
4 0
5 5
4 3
5 1

6 11
30
0 3
4 4
5 1
1 1
2 3
4 2
2 3
1 0
1 10
5 4
0 10
2 0
3 3
5 4
2 3
1 6
4 3
1 1
2 8
1 2
3 4
5 1
5 9
4 2
3 4
1 9
0 3
2 2
1 6
0 3
3 3

8 9
8
1 6
3 7
7 3
4 2
1 6
7 2
3 6
0 7
8 4

17 31
7
0 14
15 29
11 12
5 24
10 10
13 14
7 25
3 2

6 5
6
5 1
2 3
1 3
1 2
4 1
4 2
1 1

26 13
12
21 4
6 0
8 2
14 5
11 12
7 3
12 3
20 8
8 10
11 7
14 6
13 3
5 3

6 13
20
5 6
0 5
0 12
4 5
0 9
4 2
5 7
0 1
4 11
1 8
1 8
3 0
2 4
3 10
1 0
3 4
1 5
4 5
1 11
5 7
8 5

8 6
6
3 3
7 2
5 1
4 2
3 5
4 4
2 2
