*** Life<ConwayCell> 9x8 ***

Generation = 0, Population = 1.
........
........
........
..*.....
........
........
........
........
........

Generation = 2, Population = 0.
........
........
........
........
........
........
........
........
........

Generation = 4, Population = 0.
........
........
........
........
........
........
........
........
........

*** Life<ConwayCell> 10x8 ***

Generation = 0, Population = 5.
........
.*......
........
........
.....*..
*.......
......*.
........
........
...*....

Generation = 2, Population = 0.
........
........
........
........
........
........
........
........
........
........

Generation = 4, Population = 0.
........
........
........
........
........
........
........
........
........
........

Generation = 6, Population = 0.
........
........
........
........
........
........
........
........
........
........

*** Life<ConwayCell> 13x10 ***

Generation = 0, Population = 4.
..........
..........
..........
.......*..
..........
..........
..........
..........
..........
.*..*....*
..........
..........
..........

Generation = 1, Population = 0.
..........
..........
..........
..........
..........
..........
..........
..........
..........
..........
..........
..........
..........

Generation = 2, Population = 0.
..........
..........
..........
..........
..........
..........
..........
..........
..........
..........
..........
..........
..........

Generation = 3, Population = 0.
..........
..........
..........
..........
..........
..........
..........
..........
..........
..........
..........
..........
..........

Generation = 4, Population = 0.
..........
..........
..........
..........
..........
..........
..........
..........
..........
..........
..........
..........
..........

Generation = 5, Population = 0.
..........
..........
..........
..........
..........
..........
..........
..........
..........
..........
..........
..........
..........

*** Life<ConwayCell> 15x9 ***

Generation = 0, Population = 6.
.........
.........
.........
.........
.*.......
.........
......*..
.........
.......*.
.........
.....*...
....*....
.*.......
.........
.........

Generation = 2, Population = 0.
.........
.........
.........
.........
.........
.........
.........
.........
.........
.........
.........
.........
.........
.........
.........

*** Life<ConwayCell> 5x12 ***

Generation = 0, Population = 5.
.*.......*..
............
.....*......
.*..........
....*.......

Generation = 1, Population = 0.
............
............
............
............
............

Generation = 2, Population = 0.
............
............
............
............
............

Generation = 3, Population = 0.
............
............
............
............
............

Generation = 4, Population = 0.
............
............
............
............
............

Generation = 5, Population = 0.
............
............
............
............
............

*** Life<ConwayCell> 13x6 ***

Generation = 0, Population = 3.
...*..
......
......
......
......
......
......
*.....
......
......
.*....
......
......

Generation = 1, Population = 0.
......
......
......
......
......
......
......
......
......
......
......
......
......

Generation = 2, Population = 0.
......
......
......
......
......
......
......
......
......
......
......
......
......

Generation = 3, Population = 0.
......
......
......
......
......
......
......
......
......
......
......
......
......

Generation = 4, Population = 0.
......
......
......
......
......
......
......
......
......
......
......
......
......

Generation = 5, Population = 0.
......
......
......
......
......
......
......
......
......
......
......
......
......

*** Life<ConwayCell> 12x12 ***

Generation = 0, Population = 3.
............
............
............
............
............
............
..........*.
..........*.
............
..*.........
............
............

Generation = 2, Population = 0.
............
............
............
............
............
............
............
............
............
............
............
............

Generation = 4, Population = 0.
............
............
............
............
............
............
............
............
............
............
............
............

Generation = 6, Population = 0.
............
............
............
............
............
............
............
............
............
............
............
............

*** Life<ConwayCell> 8x10 ***

Generation = 0, Population = 3.
.......*..
........*.
..........
..........
..........
..........
...*......
..........

Generation = 1, Population = 0.
..........
..........
..........
..........
..........
..........
..........
..........

*** Life<ConwayCell> 14x10 ***

Generation = 0, Population = 1.
..........
..........
..........
..........
..........
..........
........*.
..........
..........
..........
..........
..........
..........
..........

Generation = 1, Population = 0.
..........
..........
..........
..........
..........
..........
..........
..........
..........
..........
..........
..........
..........
..........

*** Life<ConwayCell> 6x7 ***

Generation = 0, Population = 3.
.*.....
.*.....
.......
...*...
.......
.......

Generation = 1, Population = 0.
.......
.......
.......
.......
.......
.......

Generation = 2, Population = 0.
.......
.......
.......
.......
.......
.......

Generation = 3, Population = 0.
.......
.......
.......
.......
.......
.......

Generation = 4, Population = 0.
.......
.......
.......
.......
.......
.......

Generation = 5, Population = 0.
.......
.......
.......
.......
.......
.......

Generation = 6, Population = 0.
.......
.......
.......
.......
.......
.......

*** Life<ConwayCell> 14x8 ***

Generation = 0, Population = 3.
........
........
.....*..
........
.......*
........
........
........
........
........
........
........
...*....
........

Generation = 2, Population = 0.
........
........
........
........
........
........
........
........
........
........
........
........
........
........

*** Life<ConwayCell> 5x14 ***

Generation = 0, Population = 2.
..............
..............
*...*.........
..............
..............

Generation = 2, Population = 0.
..............
..............
..............
..............
..............

Generation = 4, Population = 0.
..............
..............
..............
..............
..............

Generation = 6, Population = 0.
..............
..............
..............
..............
..............

*** Life<ConwayCell> 6x6 ***

Generation = 0, Population = 4.
......
......
......
.*....
....*.
.*..*.

Generation = 2, Population = 0.
......
......
......
......
......
......

Generation = 4, Population = 0.
......
......
......
......
......
......

*** Life<ConwayCell> 15x13 ***

Generation = 0, Population = 1.
.............
.............
.............
.............
.............
.............
.............
.............
.............
.............
.........*...
.............
.............
.............
.............

Generation = 1, Population = 0.
.............
.............
.............
.............
.............
.............
.............
.............
.............
.............
.............
.............
.............
.............
.............

Generation = 2, Population = 0.
.............
.............
.............
.............
.............
.............
.............
.............
.............
.............
.............
.............
.............
.............
.............

Generation = 3, Population = 0.
.............
.............
.............
.............
.............
.............
.............
.............
.............
.............
.............
.............
.............
.............
.............

*** Life<ConwayCell> 8x15 ***

Generation = 0, Population = 2.
...............
...............
...............
...............
...*...........
...............
...............
....*..........

Generation = 2, Population = 0.
...............
...............
...............
...............
...............
...............
...............
...............

Generation = 4, Population = 0.
...............
...............
...............
...............
...............
...............
...............
...............

*** Life<ConwayCell> 6x7 ***

Generation = 0, Population = 4.
*......
.*.*...
.......
.*.....
.......
.......

Generation = 2, Population = 0.
.......
.......
.......
.......
.......
.......

Generation = 4, Population = 0.
.......
.......
.......
.......
.......
.......

*** Life<ConwayCell> 11x5 ***

Generation = 0, Population = 3.
.....
.....
.....
.....
*....
.....
.....
*.*..
.....
.....
.....

Generation = 1, Population = 0.
.....
.....
.....
.....
.....
.....
.....
.....
.....
.....
.....

*** Life<ConwayCell> 12x7 ***

Generation = 0, Population = 1.
.......
.......
.......
.......
.......
.......
.......
.......
.......
.......
...*...
.......

Generation = 1, Population = 0.
.......
.......
.......
.......
.......
.......
.......
.......
.......
.......
.......
.......

Generation = 2, Population = 0.
.......
.......
.......
.......
.......
.......
.......
.......
.......
.......
.......
.......

Generation = 3, Population = 0.
.......
.......
.......
.......
.......
.......
.......
.......
.......
.......
.......
.......

*** Life<ConwayCell> 8x6 ***

Generation = 0, Population = 3.
*.....
......
......
..*...
......
......
....*.
......

Generation = 1, Population = 0.
......
......
......
......
......
......
......
......

Generation = 2, Population = 0.
......
......
......
......
......
......
......
......

Generation = 3, Population = 0.
......
......
......
......
......
......
......
......

Generation = 4, Population = 0.
......
......
......
......
......
......
......
......

Generation = 5, Population = 0.
......
......
......
......
......
......
......
......

Generation = 6, Population = 0.
......
......
......
......
......
......
......
......

Generation = 7, Population = 0.
......
......
......
......
......
......
......
......

*** Life<ConwayCell> 14x12 ***

Generation = 0, Population = 5.
............
.........*..
......*.....
............
............
*..*........
............
............
............
..........*.
............
............
............
............

Generation = 2, Population = 0.
............
............
............
............
............
............
............
............
............
............
............
............
............
............
